[
/*  {
    "outputFileName": "wwwroot/css/min/site.min.css",
    "inputFiles": [
      "bower_components/bootstrap/dist/css/bootstrap.css",
      "bower_components/eonasdan-bootstrap-datetimepicker/build/css/bootstrap-datetimepicker.min.css",
      "bower_components/DataTables/media/css/dataTables.bootstrap.css"
    ]
  },
  {
    "outputFileName": "wwwroot/js/min/site.min.js",
    "inputFiles": [
      "bower_components/jquery/dist/jquery.js",
      "bower_components/bootstrap/dist/js/bootstrap.js",
      "bower_components/moment/min/moment.min.js",
      "bower_components/eonasdan-bootstrap-datetimepicker/build/js/bootstrap-datetimepicker.min.js",
      "bower_components/DataTables/media/js/jquery.dataTables.min.js",
      "bower_components/DataTables/media/js/dataTables.bootstrap.js"
    ],
    "minify": {
      "enabled": true,
      "renameLocals": true
    },
    "sourceMap": false
  }*/
]
